kinde
daily summary

date,atmp_max,atmp_min,pcpn,relh_max,relh_min
06/01/2017,71.8,44.7,0.00,92.2,27.3
06/02/2017,71.3,47.4,0.00,90.1,28.1
06/03/2017,76.3,48.9,0.00,88.2,26.7
06/04/2017,83.0,52.1,0.14,100.0,47.6
06/05/2017,62.8,51.8,0.00,108.7,65.0
06/06/2017,60.7,49.6,0.00,100.0,70.1
06/07/2017,74.8,46.4,0.00,100.0,24.9
06/08/2017,78.4,48.1,0.00,100.0,28.0
06/09/2017,77.6,59.4,0.00,79.7,41.9
06/10/2017,89.6,54.8,0.00,91.5,29.8
06/11/2017,90.5,71.0,0.00,69.4,35.3
06/12/2017,88.5,71.2,0.00,90.7,47.0
06/13/2017,74.8,58.6,0.00,90.9,51.9
06/14/2017,83.8,59.1,0.00,87.8,39.9
06/15/2017,85.2,63.0,2.38,100.0,50.0
06/16/2017,82.2,64.3,0.00,100.0,51.2
06/17/2017,77.5,63.0,1.55,100.0,74.1
06/18/2017,78.4,65.3,0.56,111.9,52.5
06/19/2017,75.6,58.0,0.00,100.0,50.9
06/20/2017,69.8,56.3,0.42,109.4,53.8
06/21/2017,74.6,51.6,0.00,109.1,44.6
06/22/2017,83.3,58.9,0.55,100.0,62.4
06/23/2017,76.2,61.2,1.29,112.8,49.0
06/24/2017,72.5,56.8,0.00,99.6,50.3
06/25/2017,67.2,53.4,0.00,98.3,57.1
06/26/2017,67.4,53.9,0.11,100.0,46.0
06/27/2017,71.2,52.5,0.00,89.6,39.8
06/28/2017,76.4,51.9,0.05,96.2,35.8
06/29/2017,82.3,60.8,0.11,96.5,58.2
06/30/2017,82.2,67.8,0.01,93.1,56.2
07/01/2017,79.1,60.7,0.00,99.6,49.2
07/02/2017,81.1,58.8,0.00,100.0,43.6
07/03/2017,76.2,54.0,0.00,100.0,34.9
07/04/2017,79.1,53.1,0.00,100.0,37.4
07/05/2017,84.4,54.8,0.00,97.9,33.6
07/06/2017,89.0,61.3,0.93,100.0,40.1
07/07/2017,80.7,63.2,0.36,100.0,52.6
07/08/2017,75.5,59.6,0.05,100.0,37.1
07/09/2017,81.1,58.5,0.00,92.9,47.1
07/10/2017,77.6,61.7,0.03,100.0,65.9
07/11/2017,82.3,61.9,0.00,112.0,61.8
07/12/2017,81.9,67.3,0.00,100.0,60.5
07/13/2017,78.0,63.2,0.06,113.7,80.3
07/14/2017,71.8,63.3,0.00,113.0,67.0
07/15/2017,81.9,59.1,0.00,99.6,27.0
07/16/2017,71.2,55.5,0.00,100.0,76.7
07/17/2017,76.3,54.5,0.00,109.5,48.6
07/18/2017,86.4,57.6,0.00,96.9,40.8
07/19/2017,84.7,65.8,0.00,91.8,40.8
07/20/2017,87.2,64.3,0.01,91.2,49.7
07/21/2017,85.9,63.2,0.00,100.0,43.7
07/22/2017,73.3,65.8,0.49,100.0,68.1
07/23/2017,80.8,63.7,0.21,109.1,64.5
07/24/2017,69.9,55.9,0.03,100.0,59.1
07/25/2017,77.8,52.2,0.00,100.0,42.9
07/26/2017,75.6,59.7,0.38,100.0,65.4
07/27/2017,75.8,60.1,0.04,109.6,63.8
07/28/2017,71.3,55.5,0.00,100.0,44.9
07/29/2017,79.0,54.8,0.00,100.0,39.4
07/30/2017,81.8,56.6,0.00,100.0,34.9
07/31/2017,85.1,61.5,0.00,96.5,50.7
08/01/2017,84.5,62.7,0.00,109.3,39.4
08/02/2017,82.3,62.8,0.00,100.0,51.8
08/03/2017,76.1,64.5,0.00,109.2,72.8
08/04/2017,73.4,59.7,0.04,100.0,48.9
08/05/2017,73.4,54.6,0.01,90.1,39.5
08/06/2017,79.4,51.7,0.00,98.2,39.5
08/07/2017,74.8,53.4,0.00,100.0,54.4
08/08/2017,79.7,52.0,0.00,100.0,41.0
08/09/2017,83.5,57.7,0.00,100.0,34.3
08/10/2017,84.8,59.7,0.00,96.0,32.5
08/11/2017,80.2,62.9,0.01,100.0,52.8
08/12/2017,75.5,55.2,0.01,100.0,57.2
08/13/2017,78.5,50.6,0.00,100.0,36.2
08/14/2017,81.3,56.4,0.17,100.0,45.0
08/15/2017,79.0,61.0,0.00,111.7,44.6
08/16/2017,79.7,57.7,0.00,100.0,44.4
08/17/2017,78.5,64.6,0.49,100.0,72.5
08/18/2017,73.1,64.7,0.02,98.5,73.3
08/19/2017,76.2,59.6,0.00,95.3,54.1
08/20/2017,82.9,59.5,0.00,100.0,40.9
08/21/2017,85.6,63.9,0.00,97.4,57.6
08/22/2017,76.7,61.0,0.58,97.0,55.6
08/23/2017,70.9,54.2,0.00,99.7,48.9
08/24/2017,67.9,47.9,0.00,100.0,56.5
08/25/2017,71.3,47.7,0.00,100.0,36.1
08/26/2017,71.4,43.6,0.00,100.0,36.8
08/27/2017,73.4,45.5,0.00,100.0,44.2
08/28/2017,73.0,60.5,1.32,100.0,75.3
08/29/2017,74.5,59.7,0.00,100.0,68.1
08/30/2017,75.8,56.2,0.03,111.1,62.1
08/31/2017,66.0,50.7,0.00,100.0,52.8
09/01/2017,64.3,45.2,0.00,99.2,48.8
09/02/2017,70.4,40.7,0.00,100.0,36.7
09/03/2017,73.8,53.6,0.00,98.5,56.9
09/04/2017,79.0,56.0,0.51,100.0,52.2
09/05/2017,68.0,49.9,0.06,109.3,53.9
09/06/2017,67.7,45.2,0.06,100.0,45.5
09/07/2017,66.0,48.7,0.07,100.0,52.5
09/08/2017,62.2,42.6,0.08,99.3,52.4
09/09/2017,65.3,40.5,0.00,100.0,41.7
09/10/2017,69.6,39.7,0.00,100.0,44.8
09/11/2017,73.6,44.8,0.00,108.0,42.7
09/12/2017,79.4,45.5,0.00,100.0,33.6
09/13/2017,78.6,47.0,0.02,110.8,34.8
09/14/2017,80.3,59.8,0.01,100.0,54.6
09/15/2017,81.8,55.9,0.00,100.0,46.0
09/16/2017,82.3,58.3,0.00,97.9,46.7
09/17/2017,85.2,60.4,0.08,97.8,43.5
09/18/2017,71.4,50.8,0.05,100.0,43.7
09/19/2017,70.2,48.3,0.00,109.4,80.4
09/20/2017,80.7,63.0,0.00,110.9,66.0
09/21/2017,91.8,62.5,0.00,100.0,47.8
09/22/2017,92.2,62.1,0.00,99.0,43.1
09/23/2017,92.4,66.5,0.00,93.3,37.4
09/24/2017,91.8,62.5,0.00,95.2,33.8
09/25/2017,90.1,59.4,0.00,100.0,42.4
09/26/2017,90.5,62.2,0.00,100.0,31.6
09/27/2017,72.4,55.3,0.01,97.8,46.2
09/28/2017,66.6,51.4,0.00,81.8,41.4
09/29/2017,64.0,50.6,0.15,93.3,53.4
09/30/2017,62.5,40.9,0.00,95.8,45.6
10/01/2017,67.9,37.1,0.00,100.0,33.7
10/02/2017,75.9,45.2,0.00,99.9,31.4
10/03/2017,83.4,54.9,0.00,91.9,46.3
10/04/2017,75.7,46.9,0.01,95.6,43.2
10/05/2017,69.3,45.1,0.01,99.4,34.3
10/06/2017,68.6,52.8,0.02,100.0,52.0
10/07/2017,81.2,61.3,0.18,100.0,48.1
10/08/2017,77.9,56.0,0.01,96.3,31.4
10/09/2017,77.9,51.0,0.00,100.0,39.5
10/10/2017,64.7,52.8,0.00,97.4,56.4
10/11/2017,56.8,49.6,0.72,94.9,66.9
10/12/2017,58.1,46.9,0.00,97.5,80.0
10/13/2017,68.8,54.9,0.02,108.5,58.9
10/14/2017,60.5,56.8,0.67,100.0,81.7
10/15/2017,68.1,44.0,0.17,100.0,66.2
10/16/2017,54.4,40.5,0.00,85.3,38.0
10/17/2017,67.9,41.4,0.00,89.9,45.1
10/18/2017,70.1,48.3,0.00,83.6,29.2
10/19/2017,65.3,45.9,0.00,75.5,21.4
10/20/2017,76.9,40.2,0.00,87.3,25.2
10/21/2017,75.6,53.8,0.00,83.9,36.1
10/22/2017,77.6,56.5,0.00,76.7,37.5
10/23/2017,67.6,59.7,0.25,98.9,59.7
10/24/2017,60.2,41.9,0.33,98.1,83.5
10/25/2017,48.1,38.0,0.14,96.6,54.2
10/26/2017,51.0,30.3,0.00,100.0,48.6
10/27/2017,53.3,42.4,0.08,94.5,73.9
10/28/2017,44.2,38.0,0.00,88.5,69.0
10/29/2017,48.0,37.2,0.02,100.0,58.3
10/30/2017,46.3,34.2,0.05,96.4,70.7
10/31/2017,43.8,36.3,0.01,87.8,66.0
11/01/2017,44.0,32.3,0.00,91.8,57.7
11/02/2017,51.6,40.0,0.53,100.0,89.3
11/03/2017,47.0,32.6,0.00,100.0,52.8
11/04/2017,44.0,36.5,0.07,96.9,72.1
11/05/2017,56.7,43.6,0.14,111.8,87.9
11/06/2017,45.9,32.6,0.00,96.7,56.0
11/07/2017,45.6,29.3,0.00,97.0,52.0
11/08/2017,44.1,27.1,0.00,96.0,52.9
11/09/2017,40.7,20.9,0.03,94.7,50.5
11/10/2017,23.9,14.2,0.00,91.0,51.4
11/11/2017,35.2,13.4,0.00,91.8,61.6
11/12/2017,36.6,31.3,0.00,87.4,62.3
11/13/2017,39.9,33.5,0.00,92.1,67.3
11/14/2017,44.9,28.7,0.00,97.9,65.2
11/15/2017,44.1,38.6,0.54,99.3,75.2
11/16/2017,40.9,32.2,0.05,93.6,70.6
11/17/2017,40.4,30.3,0.08,88.8,69.8
11/18/2017,42.3,36.3,0.86,100.0,85.8
11/19/2017,37.1,28.2,0.00,91.0,55.0
11/20/2017,44.1,26.8,0.00,86.5,57.5
11/21/2017,47.5,30.7,0.00,76.8,55.5
11/22/2017,33.2,26.9,0.00,77.4,54.7
11/23/2017,36.5,28.0,0.00,84.2,65.0
11/24/2017,55.3,29.5,0.00,81.9,45.5
11/25/2017,49.4,29.5,0.02,94.8,59.8
11/26/2017,38.6,27.8,0.00,87.2,55.5
11/27/2017,38.7,25.2,0.00,91.9,61.1
11/28/2017,60.9,37.4,0.00,95.2,39.6
11/29/2017,43.9,26.9,0.00,92.1,52.4
11/30/2017,44.6,30.1,0.06,92.8,69.8
12/01/2017,44.2,25.5,0.00,97.5,56.4
12/02/2017,50.1,32.9,0.00,87.6,47.9
12/03/2017,47.8,27.4,0.00,100.0,65.0
12/04/2017,55.1,34.8,0.00,100.0,54.8
12/05/2017,58.4,28.4,0.00,75.6,40.2
12/06/2017,30.9,24.5,0.00,79.3,44.5
12/07/2017,29.8,22.9,0.00,91.0,57.2
12/08/2017,28.0,20.9,0.00,85.6,57.1
12/09/2017,29.6,21.0,0.00,98.1,75.0
12/10/2017,27.2,20.1,0.00,96.3,68.0
12/11/2017,26.5,14.4,0.00,98.2,69.0
12/12/2017,27.7,11.8,0.01,98.8,53.3
12/13/2017,21.2,11.0,0.00,96.9,70.2
12/14/2017,21.4,4.4,0.00,93.6,64.6
12/15/2017,24.2,13.3,0.00,93.3,73.9
12/16/2017,26.2,18.0,0.00,95.2,70.8
12/17/2017,28.0,22.3,0.00,96.2,68.3
12/18/2017,36.3,26.3,0.15,100.0,88.6
12/19/2017,40.6,32.9,0.00,95.1,62.0
12/20/2017,33.2,23.9,0.00,83.1,56.2
12/21/2017,33.1,24.6,0.00,100.0,53.7
12/22/2017,32.2,28.4,0.10,100.0,91.2
12/23/2017,32.3,21.0,0.00,100.0,64.4
12/24/2017,22.8,5.6,0.00,98.2,64.2
12/25/2017,21.6,4.9,0.00,96.2,55.4
12/26/2017,7.0,-1.2,0.00,78.8,57.5
12/27/2017,11.5,-4.1,0.00,90.7,70.0
12/28/2017,11.0,-4.5,0.00,89.6,67.7
12/29/2017,12.4,6.2,0.00,89.1,66.1
12/30/2017,16.8,7.7,0.00,92.7,68.8
12/31/2017,13.0,-2.0,0.00,86.7,67.2
01/01/2018,13.7,-1.5,0.00,87.7,59.4
01/02/2018,18.3,8.3,0.00,84.1,65.1
01/03/2018,16.5,7.2,0.00,89.4,66.2
01/04/2018,10.9,-0.0,0.00,82.3,64.2
01/05/2018,3.4,-2.3,0.00,84.2,55.1
01/06/2018,5.1,-8.2,0.00,78.6,55.9
01/07/2018,29.5,-6.2,0.00,88.6,57.9
01/08/2018,33.4,28.4,0.08,100.0,72.3
01/09/2018,32.2,11.4,0.00,93.0,60.4
01/10/2018,41.4,24.7,0.00,100.0,82.8
01/11/2018,54.0,40.9,0.10,111.1,89.0
01/12/2018,50.8,13.8,0.10,109.4,68.2
01/13/2018,15.3,5.3,0.00,90.3,55.7
01/14/2018,18.3,3.5,0.00,88.7,55.1
01/15/2018,18.6,12.8,0.00,94.8,68.6
01/16/2018,22.4,-2.1,0.00,95.6,80.5
01/17/2018,23.8,-7.9,0.00,92.4,68.0
01/18/2018,26.9,16.1,0.00,88.7,68.5
01/19/2018,36.5,20.2,0.02,88.4,60.7
01/20/2018,40.4,32.3,0.00,92.4,69.6
01/21/2018,37.4,29.9,0.00,100.0,88.4
01/22/2018,44.7,32.8,0.52,111.2,100.0
01/23/2018,42.2,21.6,0.06,112.3,81.1
01/24/2018,24.0,16.6,0.00,91.9,73.2
01/25/2018,29.8,15.4,0.00,94.6,73.8
01/26/2018,46.5,22.7,0.00,93.9,51.6
01/27/2018,48.3,34.5,0.00,79.3,50.4
01/28/2018,35.7,26.9,0.00,90.1,57.7
01/29/2018,27.2,15.9,0.00,91.0,70.8
01/30/2018,21.4,15.4,0.00,78.0,57.1
01/31/2018,35.7,17.8,0.00,88.9,58.5
02/01/2018,32.4,9.5,0.00,94.3,49.5
02/02/2018,17.2,8.3,0.00,89.0,52.5
02/03/2018,26.2,11.5,0.00,98.5,68.1
02/04/2018,28.2,5.8,0.00,100.0,65.5
02/05/2018,15.9,-2.2,0.00,89.7,68.0
02/06/2018,17.7,-0.1,0.00,90.6,52.8
02/07/2018,19.6,-5.5,0.00,92.9,66.9
02/08/2018,19.0,-5.7,0.00,91.2,60.6
02/09/2018,19.9,-1.2,0.00,95.8,78.5
02/10/2018,21.9,3.2,0.00,94.4,70.6
02/11/2018,28.0,8.1,0.00,97.4,77.9
02/12/2018,19.4,-4.2,0.00,92.0,53.9
02/13/2018,24.6,-6.2,0.00,91.9,58.7
02/14/2018,41.7,20.4,0.11,89.8,56.4
02/15/2018,41.0,32.4,0.00,100.0,83.6
02/16/2018,32.8,23.2,0.00,89.9,51.8
02/17/2018,30.8,20.1,0.00,97.8,51.2
02/18/2018,35.1,27.0,0.01,92.9,63.8
02/19/2018,39.3,30.8,0.48,110.0,79.8
02/20/2018,59.1,34.5,0.76,116.0,90.1
02/21/2018,53.3,27.2,0.27,100.0,69.8
02/22/2018,31.5,27.0,0.00,90.1,70.8
02/23/2018,41.2,31.0,0.07,100.0,83.9
02/24/2018,35.8,30.0,0.00,94.3,72.8
02/25/2018,46.6,33.3,0.14,100.0,55.4
02/26/2018,44.4,30.5,0.00,83.9,46.9
02/27/2018,57.1,33.2,0.00,81.7,42.5
02/28/2018,51.4,33.4,0.00,100.0,57.8
03/01/2018,34.3,29.9,0.00,108.5,83.5
03/02/2018,38.1,29.3,0.04,108.6,55.0
03/03/2018,34.2,26.0,0.00,89.2,35.9
03/04/2018,34.2,24.7,0.00,94.3,47.0
03/05/2018,30.8,24.3,0.00,93.8,67.7
03/06/2018,30.7,24.1,0.00,96.8,75.7
03/07/2018,33.6,23.7,0.11,100.0,91.4
03/08/2018,31.1,22.9,0.07,99.5,84.3
03/09/2018,31.8,26.9,0.04,91.8,55.4
03/10/2018,39.1,22.9,0.00,91.8,49.4
03/11/2018,41.6,6.8,0.00,96.5,34.0
03/12/2018,43.7,4.8,0.00,99.1,43.4
03/13/2018,34.1,22.6,0.00,97.7,62.6
03/14/2018,33.8,19.2,0.00,81.9,48.8
03/15/2018,34.8,19.6,0.00,90.0,60.0
03/16/2018,30.2,14.9,0.00,82.7,46.1
03/17/2018,40.9,12.2,0.00,94.8,49.9
03/18/2018,44.1,14.7,0.00,98.1,45.8
03/19/2018,29.5,21.0,0.00,91.5,57.3
03/20/2018,27.8,20.2,0.00,82.4,70.8
03/21/2018,32.1,22.6,0.00,79.8,62.8
03/22/2018,36.6,21.2,0.00,95.0,43.7
03/23/2018,33.4,20.4,0.00,93.0,54.9
03/24/2018,28.0,20.2,0.00,93.9,53.6
03/25/2018,31.0,19.9,0.00,88.9,45.9
03/26/2018,43.7,26.0,0.00,86.8,53.4
03/27/2018,48.8,36.0,0.33,100.0,62.8
03/28/2018,45.4,30.9,0.00,98.7,62.1
03/29/2018,45.9,31.2,0.04,100.0,74.6
03/30/2018,40.4,26.6,0.00,83.1,40.1
03/31/2018,44.3,29.2,0.21,93.6,57.8
04/01/2018,35.4,23.5,0.00,77.9,41.9
04/02/2018,42.6,23.0,0.00,83.2,35.5
04/03/2018,36.8,31.2,0.07,100.0,65.5
04/04/2018,32.4,23.9,0.00,100.0,47.2
04/05/2018,36.5,18.4,0.10,85.7,41.5
04/06/2018,35.9,25.0,0.08,100.0,38.7
04/07/2018,29.1,21.1,0.00,70.5,51.3
04/08/2018,36.6,21.7,0.00,85.1,34.2
04/09/2018,39.5,25.8,0.00,91.2,51.6
04/10/2018,45.5,27.4,0.00,100.0,25.7
04/11/2018,45.8,31.3,0.01,98.0,57.5
04/12/2018,66.2,32.4,0.12,100.0,52.6
04/13/2018,36.5,33.2,0.68,100.0,89.2
04/14/2018,35.5,25.5,0.12,100.0,82.7
04/15/2018,33.6,25.3,0.41,100.0,81.7
04/16/2018,34.8,27.2,0.60,108.9,76.0
04/17/2018,35.4,25.9,0.00,94.5,69.6
04/18/2018,40.4,30.7,0.00,89.5,59.3
04/19/2018,43.7,31.8,0.00,86.5,39.3
04/20/2018,50.0,30.1,0.00,87.3,26.9
04/21/2018,58.2,29.4,0.00,88.8,25.1
04/22/2018,60.3,28.9,0.00,91.2,20.4
04/23/2018,68.1,34.2,0.00,79.8,21.1
04/24/2018,64.3,45.0,0.00,97.5,48.5
04/25/2018,48.9,37.2,0.08,100.0,83.0
04/26/2018,59.1,31.6,0.00,92.9,19.4
04/27/2018,52.3,35.8,0.02,96.4,53.5
04/28/2018,42.1,33.6,0.00,98.1,32.7
04/29/2018,56.5,30.1,0.00,86.2,21.1
04/30/2018,71.0,28.6,0.00,89.1,13.4
05/01/2018,84.6,53.7,0.00,55.4,20.0
05/02/2018,81.4,56.1,0.00,85.3,38.8
05/03/2018,57.1,43.0,0.38,100.0,84.4
05/04/2018,73.7,43.2,0.49,108.8,51.8
05/05/2018,77.9,45.2,0.00,100.0,24.6
05/06/2018,58.1,39.5,0.01,93.9,42.3
05/07/2018,66.6,36.1,0.00,92.9,28.7
05/08/2018,79.7,47.6,0.00,79.0,26.6
05/09/2018,80.6,54.0,0.03,81.1,24.2
05/10/2018,64.5,39.3,0.03,91.1,34.2
05/11/2018,46.2,34.6,0.02,84.7,35.9
05/12/2018,52.8,37.6,0.01,84.6,31.6
05/13/2018,67.3,37.1,0.00,89.2,23.5
05/14/2018,77.4,51.0,0.00,98.7,54.2
05/15/2018,68.7,43.4,0.20,100.0,44.5
05/16/2018,78.5,40.4,0.00,92.5,26.5
05/17/2018,62.5,45.7,0.00,91.5,47.4
05/18/2018,67.5,44.8,0.00,60.8,27.5
05/19/2018,66.6,51.2,0.31,100.0,34.9
05/20/2018,58.8,43.9,0.00,108.1,65.5
05/21/2018,65.2,36.1,0.02,109.9,36.8
05/22/2018,61.7,48.7,0.47,110.1,69.5
05/23/2018,77.5,47.0,0.00,110.5,22.2
05/24/2018,83.0,52.6,0.00,95.5,25.9
05/25/2018,89.1,60.7,0.00,76.5,29.1
05/26/2018,86.1,62.9,0.00,90.1,41.0
05/27/2018,92.1,60.9,0.00,109.4,32.5
05/28/2018,91.0,58.5,0.00,100.0,32.9
05/29/2018,80.4,61.3,0.00,92.1,53.6
05/30/2018,85.9,63.6,0.00,77.0,53.0
05/31/2018,89.0,65.0,0.01,94.0,38.1
06/01/2018,73.5,50.5,0.00,100.0,76.6
06/02/2018,59.6,46.7,0.00,89.0,52.5
06/03/2018,75.2,50.1,0.03,93.7,52.7
06/04/2018,72.2,50.8,0.05,96.5,33.4
06/05/2018,63.4,49.1,0.00,93.9,49.5
06/06/2018,70.4,41.5,0.00,95.5,32.5
06/07/2018,78.0,55.5,0.00,79.0,43.4
06/08/2018,77.5,53.4,0.00,86.4,34.1
06/09/2018,70.3,51.1,0.00,85.1,54.5
06/10/2018,75.3,54.0,0.00,75.0,35.0
06/11/2018,77.1,49.5,0.00,84.8,24.4
06/12/2018,84.0,49.5,0.00,87.1,42.8
06/13/2018,81.9,61.5,0.00,97.4,24.2
06/14/2018,78.6,53.8,0.00,78.8,30.9
06/15/2018,79.2,48.1,0.00,93.0,25.4
06/16/2018,81.8,62.5,0.00,94.9,47.9
06/17/2018,96.3,60.0,0.00,98.5,33.1
06/18/2018,83.9,62.3,0.06,97.8,62.9
06/19/2018,70.4,56.8,0.00,99.2,49.8
06/20/2018,,,,,
06/21/2018,69.7,50.4,0.00,93.6,41.8
06/22/2018,70.8,52.6,0.00,97.2,40.9
06/23/2018,69.5,59.4,0.64,100.0,86.9
06/24/2018,63.7,52.3,0.39,100.0,77.1
06/25/2018,66.3,49.6,0.00,99.8,37.3
06/26/2018,78.0,46.2,0.00,97.2,40.3
06/27/2018,74.9,60.5,0.05,100.0,70.4
06/28/2018,86.3,60.8,0.00,100.0,39.2
06/29/2018,91.1,61.3,0.00,98.8,45.3
06/30/2018,95.6,75.4,0.00,93.7,46.7
07/01/2018,94.8,74.2,0.00,92.3,39.2
07/02/2018,83.2,66.9,0.00,88.0,46.8
07/03/2018,90.6,61.9,0.00,95.9,25.6
07/04/2018,93.9,64.1,0.00,89.7,33.5
07/05/2018,91.8,67.4,0.02,94.5,49.8
07/06/2018,71.3,50.7,0.00,85.3,30.0
07/07/2018,80.5,46.8,0.00,88.1,24.7
07/08/2018,87.9,54.2,0.00,81.2,23.3
07/09/2018,89.4,58.9,0.00,89.2,29.3
07/10/2018,81.0,59.6,0.00,78.6,27.3
07/11/2018,80.8,54.4,0.00,92.2,27.4
07/12/2018,85.2,51.9,0.00,88.1,28.5
07/13/2018,88.7,63.4,0.15,94.4,44.9
07/14/2018,83.9,67.4,0.04,98.7,59.1
07/15/2018,89.2,66.2,0.00,99.3,35.0
07/16/2018,89.2,69.6,0.05,95.4,47.1
07/17/2018,79.3,56.8,0.00,97.7,40.4
07/18/2018,77.5,53.6,0.00,97.1,44.6
07/19/2018,85.0,50.1,0.00,94.8,29.5
07/20/2018,87.4,60.0,0.00,92.7,42.0
07/21/2018,75.6,67.8,0.12,98.0,69.1
07/22/2018,70.6,61.9,0.11,99.2,77.5
07/23/2018,80.6,60.4,0.03,99.5,64.9
07/24/2018,83.9,64.3,0.00,100.0,57.8
07/25/2018,83.2,62.1,0.00,100.0,42.6
07/26/2018,80.9,63.2,0.00,95.4,40.6
07/27/2018,75.4,55.8,0.56,97.6,52.2
07/28/2018,75.4,58.6,0.00,97.6,54.8
07/29/2018,80.8,55.3,0.00,98.3,31.7
07/30/2018,82.8,54.6,0.00,98.5,37.6
07/31/2018,80.7,52.5,0.00,100.0,40.7
08/01/2018,81.1,61.4,0.10,99.0,43.6
08/02/2018,82.9,58.9,0.84,99.3,56.4
08/03/2018,79.8,61.2,0.08,98.9,57.1
08/04/2018,86.4,59.7,0.00,99.9,43.7
08/05/2018,90.3,69.2,0.00,95.0,44.0
08/06/2018,78.8,66.5,0.21,99.3,67.1
08/07/2018,80.9,62.5,0.02,100.0,65.0
08/08/2018,78.7,66.1,0.89,99.6,63.3
08/09/2018,81.5,61.9,0.07,99.6,64.1
08/10/2018,78.9,59.7,0.00,100.0,34.2
08/11/2018,82.3,58.0,0.03,98.6,53.6
08/12/2018,79.4,59.3,0.00,100.0,54.3
08/13/2018,83.8,60.2,0.00,100.0,51.8
08/14/2018,84.7,60.8,0.00,98.6,47.1
08/15/2018,84.5,63.6,0.00,98.3,52.2
08/16/2018,84.2,64.9,0.00,98.8,58.4
08/17/2018,79.2,64.9,0.00,99.6,70.9
08/18/2018,82.0,60.9,0.00,100.0,63.5
08/19/2018,83.8,58.9,0.00,100.0,54.6
08/20/2018,79.7,59.3,0.00,100.0,52.1
08/21/2018,77.5,65.3,0.84,99.0,80.6
08/22/2018,73.9,54.5,0.01,97.0,44.2
08/23/2018,78.1,53.5,0.00,96.9,39.2
08/24/2018,79.0,55.2,0.00,93.5,44.8
08/25/2018,77.2,63.3,0.32,97.8,73.3
08/26/2018,82.6,66.6,0.00,99.4,54.8
08/27/2018,84.3,67.2,0.46,98.1,73.6
08/28/2018,82.6,67.2,1.09,99.6,67.8
08/29/2018,76.4,61.4,0.26,99.6,74.2
08/30/2018,65.4,51.5,0.00,99.2,67.2
08/31/2018,79.0,49.6,0.00,100.0,48.8
09/01/2018,83.2,62.9,0.23,99.0,70.5
09/02/2018,83.2,68.4,0.35,99.7,69.0
09/03/2018,81.8,68.6,0.46,99.4,67.5
09/04/2018,88.0,68.3,0.11,99.8,59.6
09/05/2018,88.0,67.1,0.09,97.6,53.9
09/06/2018,71.1,53.1,0.00,98.8,61.4
09/07/2018,69.5,48.4,0.00,100.0,52.1
09/08/2018,63.5,52.2,0.00,84.4,48.2
09/09/2018,63.0,52.0,0.00,79.3,56.7
09/10/2018,60.6,57.0,0.04,99.7,73.0
09/11/2018,75.7,52.5,0.00,100.0,58.0
09/12/2018,79.7,52.1,0.00,100.0,50.6
09/13/2018,76.5,52.3,0.00,100.0,59.4
09/14/2018,81.3,58.6,0.00,100.0,63.4
09/15/2018,79.8,56.4,0.00,100.0,60.4
09/16/2018,82.2,56.7,0.00,100.0,60.4
09/17/2018,87.3,60.6,0.00,100.0,43.4
09/18/2018,75.0,60.3,0.00,95.7,57.3
09/19/2018,,,,,
09/20/2018,72.1,59.2,0.03,98.4,65.8
09/21/2018,80.2,53.7,0.12,98.7,42.6
09/22/2018,63.8,45.6,0.00,90.1,43.7
09/23/2018,69.3,43.0,0.00,97.1,42.9
09/24/2018,67.4,52.0,0.00,96.2,69.2
09/25/2018,78.6,64.2,0.13,99.8,69.9
09/26/2018,71.2,47.1,0.00,96.9,45.0
09/27/2018,66.3,40.6,0.00,98.6,34.5
09/28/2018,58.4,49.0,0.01,93.2,62.0
09/29/2018,57.0,39.3,0.00,91.3,42.1
09/30/2018,51.1,44.2,0.03,100.0,65.6

Variable Ids:
  atmp_max:      Max Air Temperature [1.5m] (F)
  atmp_min:      Min Air Temperature [1.5m] (F)
  pcpn:          Precipitation (in)
  relh_max:      Max Relative Humidity [1.5m] (%)
  relh_min:      Min Relative Humidity [1.5m] (%)


=========================================================================
Data provided by the Michigan Automated Weather Network (MAWN) 
and Enviro-weather Program.

Please direct bug reports, comments, and suggestions to the following
email address: eweather@msu.edu
