richville
daily summary

date,atmp_max,atmp_min,pcpn,relh_max,relh_min
06/01/2017,74.9,44.6,0.00,96.3,22.2
06/02/2017,82.2,47.7,0.00,87.2,22.7
06/03/2017,81.3,47.7,0.04,82.7,23.1
06/04/2017,87.2,58.6,0.22,97.7,29.1
06/05/2017,67.3,53.6,0.03,98.6,49.9
06/06/2017,68.3,50.6,0.01,99.1,53.4
06/07/2017,78.2,46.2,0.00,99.8,23.8
06/08/2017,80.9,49.8,0.00,92.0,21.8
06/09/2017,80.0,59.5,0.00,71.0,33.4
06/10/2017,89.4,57.1,0.00,99.5,25.8
06/11/2017,91.1,71.0,0.00,55.0,34.9
06/12/2017,94.3,70.6,0.00,74.5,32.4
06/13/2017,86.8,67.1,0.00,90.1,36.1
06/14/2017,83.4,63.3,0.00,86.8,52.8
06/15/2017,87.3,66.8,0.34,98.3,43.1
06/16/2017,82.4,64.2,0.00,98.5,44.6
06/17/2017,82.7,63.6,0.97,100.0,64.1
06/18/2017,79.3,64.3,0.54,100.0,46.5
06/19/2017,77.1,58.1,0.30,98.5,47.3
06/20/2017,72.8,55.7,0.00,100.0,42.0
06/21/2017,76.6,51.2,0.00,100.0,37.8
06/22/2017,86.3,58.5,0.53,99.5,57.0
06/23/2017,77.4,62.8,1.25,100.0,50.0
06/24/2017,75.1,56.1,0.17,99.1,45.1
06/25/2017,66.6,53.3,0.02,90.9,61.7
06/26/2017,69.6,53.1,0.00,94.5,36.2
06/27/2017,69.7,51.8,0.08,95.1,41.6
06/28/2017,76.4,50.9,0.08,92.8,35.4
06/29/2017,83.6,62.7,0.03,92.2,55.1
06/30/2017,82.9,67.1,0.22,98.7,57.6
07/01/2017,80.3,63.4,0.00,99.6,44.7
07/02/2017,81.1,59.3,0.00,98.8,45.9
07/03/2017,77.3,53.8,0.00,100.0,34.8
07/04/2017,81.3,52.6,0.00,100.0,32.5
07/05/2017,86.5,52.9,0.00,97.3,30.0
07/06/2017,88.8,60.6,0.00,92.0,36.1
07/07/2017,85.4,64.1,0.04,99.1,48.8
07/08/2017,77.7,59.2,0.00,95.7,29.2
07/09/2017,82.1,56.7,0.00,79.5,39.9
07/10/2017,76.8,63.7,0.21,100.0,64.4
07/11/2017,87.7,59.9,0.00,100.0,46.8
07/12/2017,81.6,67.5,0.00,99.4,61.8
07/13/2017,82.3,66.3,0.11,100.0,76.9
07/14/2017,76.9,63.5,0.00,100.0,55.1
07/15/2017,80.9,57.0,0.00,99.3,36.8
07/16/2017,72.9,55.8,0.01,100.0,75.1
07/17/2017,79.0,50.3,0.00,100.0,30.8
07/18/2017,86.4,57.5,0.00,97.8,43.0
07/19/2017,87.4,66.1,0.00,94.6,46.7
07/20/2017,85.9,68.8,0.00,96.1,56.8
07/21/2017,87.8,62.2,0.00,100.0,40.3
07/22/2017,75.7,65.7,0.49,100.0,81.7
07/23/2017,82.3,65.0,0.02,100.0,61.0
07/24/2017,72.3,55.3,0.00,97.6,55.7
07/25/2017,80.6,48.7,0.00,100.0,38.4
07/26/2017,77.5,59.2,0.10,98.6,65.2
07/27/2017,79.3,58.9,0.12,100.0,53.1
07/28/2017,75.1,54.2,0.00,100.0,45.7
07/29/2017,80.4,49.9,0.00,100.0,40.5
07/30/2017,84.4,52.0,0.00,100.0,33.0
07/31/2017,86.3,58.0,0.00,98.2,38.2
08/01/2017,85.5,61.6,0.00,100.0,34.0
08/02/2017,86.3,61.6,0.00,100.0,34.5
08/03/2017,82.6,58.4,0.19,100.0,56.6
08/04/2017,71.2,59.0,0.01,100.0,50.9
08/05/2017,74.7,53.9,0.00,92.9,36.0
08/06/2017,77.5,52.1,0.29,99.9,40.9
08/07/2017,75.0,54.7,0.01,100.0,46.6
08/08/2017,80.0,49.9,0.00,100.0,41.0
08/09/2017,83.5,57.6,0.01,94.4,32.4
08/10/2017,83.3,58.7,0.00,98.1,33.9
08/11/2017,80.5,61.6,0.16,98.7,53.0
08/12/2017,75.4,57.4,0.01,100.0,57.6
08/13/2017,78.6,51.9,0.00,100.0,33.5
08/14/2017,81.7,58.6,0.00,100.0,39.8
08/15/2017,80.1,56.8,0.00,100.0,45.1
08/16/2017,83.6,53.8,0.00,100.0,43.7
08/17/2017,80.3,65.6,0.56,100.0,66.6
08/18/2017,73.8,61.1,0.03,100.0,69.1
08/19/2017,77.9,58.9,0.00,100.0,51.4
08/20/2017,83.7,56.7,0.00,100.0,33.2
08/21/2017,86.6,65.0,0.00,96.8,52.8
08/22/2017,78.4,57.6,0.12,99.5,53.2
08/23/2017,72.6,50.9,0.00,97.3,43.8
08/24/2017,67.6,47.6,0.00,100.0,53.3
08/25/2017,70.6,42.3,0.00,100.0,32.2
08/26/2017,74.4,41.0,0.00,100.0,32.5
08/27/2017,75.9,48.8,0.00,97.6,34.5
08/28/2017,67.0,57.5,0.07,100.0,79.5
08/29/2017,75.1,57.5,0.79,100.0,65.3
08/30/2017,79.0,58.0,0.01,100.0,46.4
08/31/2017,68.4,44.9,0.00,100.0,46.7
09/01/2017,68.2,40.5,0.00,100.0,44.9
09/02/2017,74.8,38.0,0.01,100.0,27.4
09/03/2017,77.0,52.6,0.03,98.4,40.6
09/04/2017,82.0,54.6,0.07,100.0,49.4
09/05/2017,69.2,48.3,0.89,100.0,41.9
09/06/2017,65.9,41.9,0.01,100.0,40.7
09/07/2017,63.8,44.8,0.03,100.0,50.8
09/08/2017,64.0,42.7,0.03,100.0,52.9
09/09/2017,64.7,38.0,0.00,100.0,39.0
09/10/2017,69.9,36.2,0.00,100.0,39.3
09/11/2017,73.8,41.6,0.00,100.0,29.5
09/12/2017,80.4,44.4,0.00,100.0,29.7
09/13/2017,79.0,43.6,0.00,100.0,41.0
09/14/2017,79.9,58.5,0.00,100.0,51.5
09/15/2017,82.8,53.3,0.00,100.0,44.2
09/16/2017,83.0,57.9,0.00,100.0,41.0
09/17/2017,86.6,59.2,0.40,99.9,40.7
09/18/2017,74.3,54.2,0.00,100.0,51.6
09/19/2017,70.4,50.8,0.00,100.0,77.3
09/20/2017,82.3,59.8,0.07,100.0,55.5
09/21/2017,93.0,65.2,0.00,97.7,42.8
09/22/2017,93.6,61.8,0.00,100.0,35.5
09/23/2017,94.4,64.2,0.00,97.5,28.4
09/24/2017,92.4,59.4,0.00,99.4,26.7
09/25/2017,91.5,59.8,0.00,100.0,31.5
09/26/2017,91.7,61.8,0.00,100.0,25.3
09/27/2017,73.2,54.2,0.01,97.8,40.6
09/28/2017,69.2,51.8,0.00,75.6,34.0
09/29/2017,65.8,48.5,0.04,97.4,39.6
09/30/2017,64.5,42.2,0.00,98.6,37.9
10/01/2017,69.3,38.1,0.00,99.8,34.1
10/02/2017,77.1,42.2,0.00,99.6,35.8
10/03/2017,85.9,53.7,0.00,93.7,40.8
10/04/2017,76.7,50.2,0.01,96.1,34.7
10/05/2017,74.0,44.1,0.00,100.0,28.0
10/06/2017,65.4,54.4,0.10,100.0,67.6
10/07/2017,82.2,60.4,0.42,100.0,44.1
10/08/2017,77.5,55.0,0.00,100.0,31.2
10/09/2017,78.6,53.0,0.00,100.0,36.1
10/10/2017,67.6,50.6,0.00,100.0,37.1
10/11/2017,55.0,47.2,0.70,99.9,68.5
10/12/2017,56.0,42.4,0.01,100.0,86.9
10/13/2017,71.0,53.5,0.00,100.0,53.1
10/14/2017,61.6,56.0,0.63,100.0,87.5
10/15/2017,67.9,42.3,0.18,100.0,63.8
10/16/2017,56.0,37.2,0.00,99.2,41.4
10/17/2017,,,0.00,,
10/18/2017,,,,,
10/19/2017,65.1,46.8,0.00,47.5,11.9
10/20/2017,75.8,40.1,0.00,65.6,25.8
10/21/2017,76.5,53.6,0.00,69.4,21.2
10/22/2017,78.2,56.4,0.00,60.0,30.5
10/23/2017,69.5,50.6,0.53,81.2,39.9
10/24/2017,51.0,41.0,0.84,81.1,70.9
10/25/2017,50.8,34.2,0.01,80.7,31.8
10/26/2017,53.1,28.2,0.00,83.1,30.9
10/27/2017,52.3,38.9,0.06,77.9,54.1
10/28/2017,44.4,37.2,0.00,75.7,50.2
10/29/2017,48.1,36.3,0.03,81.5,30.0
10/30/2017,45.2,32.8,0.00,80.0,51.1
10/31/2017,42.0,34.8,0.00,77.2,46.2
11/01/2017,43.3,32.3,0.03,78.6,41.7
11/02/2017,51.4,39.3,0.46,82.9,75.8
11/03/2017,47.1,32.3,0.00,83.0,39.5
11/04/2017,45.1,34.6,0.15,80.0,58.5
11/05/2017,57.7,43.2,0.13,83.3,71.5
11/06/2017,46.0,33.2,0.00,80.0,36.5
11/07/2017,45.6,29.1,0.00,81.9,31.4
11/08/2017,45.6,24.2,0.00,78.4,42.3
11/09/2017,41.5,19.9,0.02,77.6,39.1
11/10/2017,23.7,15.0,0.00,74.6,37.1
11/11/2017,35.9,13.8,0.00,76.0,29.4
11/12/2017,37.2,31.3,0.00,81.0,32.7
11/13/2017,42.9,31.4,0.00,80.1,40.8
11/14/2017,47.1,26.0,0.00,81.8,48.3
11/15/2017,44.9,38.8,0.37,81.4,53.0
11/16/2017,41.8,31.7,0.00,76.4,52.3
11/17/2017,42.0,27.3,0.08,75.1,51.7
11/18/2017,43.8,32.5,0.77,83.1,66.8
11/19/2017,37.2,27.0,0.00,78.9,43.6
11/20/2017,46.9,27.0,0.00,71.3,38.5
11/21/2017,49.0,30.9,0.01,70.2,42.6
11/22/2017,32.4,27.2,0.00,64.5,36.9
11/23/2017,37.5,27.5,0.00,61.6,41.1
11/24/2017,57.0,31.3,0.00,62.0,28.6
11/25/2017,50.5,30.8,0.01,77.0,36.5
11/26/2017,41.4,23.2,0.00,71.8,38.2
11/27/2017,39.8,22.3,0.00,81.8,47.0
11/28/2017,63.7,39.1,0.00,71.7,23.2
11/29/2017,43.5,28.5,0.00,70.6,33.5
11/30/2017,46.0,28.5,0.05,75.6,47.0
12/01/2017,45.9,25.3,0.00,78.8,34.2
12/02/2017,49.7,31.3,0.00,69.5,33.1
12/03/2017,50.2,25.8,0.00,81.8,32.3
12/04/2017,56.9,35.6,0.00,61.2,33.3
12/05/2017,57.5,27.6,0.01,64.6,29.0
12/06/2017,36.9,24.3,0.00,59.9,29.1
12/07/2017,29.8,23.1,0.00,66.2,40.6
12/08/2017,30.3,21.1,0.00,65.3,41.9
12/09/2017,29.2,14.8,0.05,80.9,38.6
12/10/2017,27.1,14.8,0.00,79.1,62.1
12/11/2017,28.3,10.8,0.00,81.7,59.3
12/12/2017,28.3,9.3,0.00,82.1,36.1
12/13/2017,20.4,12.3,0.00,79.5,54.7
12/14/2017,20.7,-5.4,0.00,79.4,51.6
12/15/2017,23.7,9.5,0.00,78.0,45.5
12/16/2017,24.3,19.8,0.00,79.8,64.3
12/17/2017,28.7,21.9,0.01,79.7,58.3
12/18/2017,37.8,27.1,0.21,83.0,70.1
12/19/2017,44.5,33.3,0.00,75.0,40.7
12/20/2017,33.9,23.3,0.00,70.0,41.0
12/21/2017,31.5,25.6,0.00,81.6,47.0
12/22/2017,33.9,28.3,0.05,82.2,70.0
12/23/2017,33.3,21.5,0.00,79.9,49.7
12/24/2017,22.0,17.1,0.00,78.9,48.8
12/25/2017,19.1,3.2,0.00,78.6,45.2
12/26/2017,8.0,-2.5,0.00,65.8,41.0
12/27/2017,12.3,-4.7,0.00,69.0,40.7
12/28/2017,13.2,-6.1,0.00,70.0,35.4
12/29/2017,15.6,7.0,0.00,73.7,45.5
12/30/2017,14.4,-2.0,0.00,74.6,52.1
12/31/2017,11.1,-4.5,0.00,72.4,41.3
01/01/2018,13.1,-0.4,0.00,68.0,45.0
01/02/2018,19.1,6.4,0.00,68.5,51.5
01/03/2018,16.0,2.4,0.00,73.8,49.0
01/04/2018,11.3,-5.0,0.00,63.6,39.8
01/05/2018,4.3,-8.8,0.00,59.2,33.6
01/06/2018,6.7,-7.1,0.00,62.0,35.7
01/07/2018,31.0,-4.6,0.00,79.1,40.9
01/08/2018,35.4,24.6,0.01,83.8,58.3
01/09/2018,37.0,7.7,0.00,82.7,41.3
01/10/2018,48.5,23.2,0.00,82.4,67.0
01/11/2018,57.8,47.2,0.06,82.5,67.0
01/12/2018,52.6,10.3,0.04,81.5,44.8
01/13/2018,13.4,0.7,0.00,73.9,45.3
01/14/2018,17.1,-1.0,0.00,73.1,40.5
01/15/2018,18.2,8.7,0.00,77.7,51.4
01/16/2018,18.6,3.3,0.00,77.6,66.7
01/17/2018,26.0,-4.1,0.00,75.7,46.6
01/18/2018,27.3,16.3,0.00,69.7,48.6
01/19/2018,36.1,20.4,0.03,67.5,44.3
01/20/2018,41.2,31.0,0.00,73.3,50.1
01/21/2018,38.0,30.4,0.00,82.0,71.5
01/22/2018,46.5,33.9,0.58,83.7,77.5
01/23/2018,44.0,24.7,0.01,83.7,63.6
01/24/2018,26.2,19.7,0.00,74.5,58.5
01/25/2018,33.2,20.9,0.00,72.5,51.4
01/26/2018,50.4,25.6,0.00,73.3,31.9
01/27/2018,49.5,32.0,0.00,67.1,33.5
01/28/2018,35.9,27.6,0.00,77.9,48.2
01/29/2018,28.2,13.9,0.00,81.6,50.6
01/30/2018,22.1,11.4,0.00,63.7,37.0
01/31/2018,37.2,18.9,0.00,71.5,42.0
02/01/2018,32.8,9.2,0.00,73.1,37.7
02/02/2018,18.4,9.0,0.00,65.5,29.0
02/03/2018,28.9,12.9,0.00,80.8,47.9
02/04/2018,29.5,-2.6,0.00,83.3,57.9
02/05/2018,18.0,-4.3,0.00,75.6,48.0
02/06/2018,19.8,2.0,0.06,75.8,39.1
02/07/2018,20.6,3.2,0.00,75.9,49.0
02/08/2018,20.2,4.2,0.00,74.6,50.4
02/09/2018,20.2,8.9,0.00,78.3,68.0
02/10/2018,18.0,2.7,0.00,78.4,68.9
02/11/2018,24.4,5.7,0.01,81.3,63.7
02/12/2018,28.8,-0.3,0.14,76.7,30.5
02/13/2018,27.4,-2.3,0.00,75.0,36.5
02/14/2018,41.5,19.5,0.01,78.7,48.1
02/15/2018,42.1,33.1,0.00,82.9,62.9
02/16/2018,33.5,23.7,0.00,77.3,39.2
02/17/2018,33.3,20.4,0.00,82.3,31.9
02/18/2018,38.9,25.8,0.00,79.8,41.4
02/19/2018,39.7,33.0,0.41,83.9,60.8
02/20/2018,59.2,36.4,0.95,84.3,77.2
02/21/2018,53.5,28.8,0.32,82.3,53.1
02/22/2018,38.7,27.4,0.00,76.8,28.4
02/23/2018,44.0,29.0,0.05,83.2,66.4
02/24/2018,36.7,31.5,0.00,79.6,56.9
02/25/2018,47.1,35.0,0.01,82.2,33.9
02/26/2018,47.5,29.9,0.00,71.2,25.3
02/27/2018,59.9,34.0,0.00,63.2,23.6
02/28/2018,59.2,35.0,0.00,77.6,33.5
03/01/2018,36.3,30.2,0.01,84.4,70.0
03/02/2018,42.1,24.9,0.03,84.4,29.8
03/03/2018,38.6,22.9,0.00,74.5,20.8
03/04/2018,40.3,20.1,0.00,78.5,28.1
03/05/2018,38.9,17.3,0.00,78.2,33.8
03/06/2018,35.9,27.6,0.02,81.9,56.1
03/07/2018,30.5,22.6,0.00,83.6,54.9
03/08/2018,31.4,21.5,0.02,82.4,60.7
03/09/2018,33.2,25.9,0.01,77.2,48.2
03/10/2018,32.7,20.2,0.00,73.5,30.8
03/11/2018,33.6,15.6,0.00,73.8,36.0
03/12/2018,33.1,18.1,0.01,82.3,56.4
03/13/2018,31.4,17.8,0.00,82.6,47.0
03/14/2018,38.1,18.9,0.00,68.1,28.2
03/15/2018,33.2,20.5,0.00,75.3,39.5
03/16/2018,35.8,17.6,0.00,65.3,23.5
03/17/2018,44.4,15.6,0.00,73.5,16.4
03/18/2018,55.7,24.0,0.00,74.3,14.0
03/19/2018,35.9,20.9,0.00,69.8,31.2
03/20/2018,35.9,20.6,0.00,68.2,33.5
03/21/2018,37.7,22.4,0.00,72.1,32.8
03/22/2018,44.2,21.4,0.00,74.1,14.1
03/23/2018,39.3,20.1,0.00,75.2,22.7
03/24/2018,36.3,15.9,0.00,78.0,23.6
03/25/2018,38.6,13.2,0.00,64.7,13.9
03/26/2018,49.9,17.6,0.00,77.3,21.3
03/27/2018,51.4,38.8,0.20,81.2,31.1
03/28/2018,47.9,33.1,0.00,80.3,44.8
03/29/2018,45.8,36.8,0.04,78.2,63.4
03/30/2018,44.5,27.2,0.00,74.2,21.3
03/31/2018,45.8,29.5,0.20,76.0,41.3
04/01/2018,38.6,23.4,0.00,67.5,24.7
04/02/2018,44.0,18.6,0.00,65.6,20.5
04/03/2018,40.2,31.9,0.49,82.2,39.4
04/04/2018,32.6,24.4,0.02,83.6,35.1
04/05/2018,38.4,21.4,0.00,65.5,28.4
04/06/2018,40.1,17.7,0.12,83.4,34.5
04/07/2018,29.2,13.0,0.01,64.8,36.7
04/08/2018,35.5,15.7,0.01,70.9,30.3
04/09/2018,36.4,27.1,0.10,81.0,51.2
04/10/2018,45.6,26.0,0.00,83.4,22.4
04/11/2018,53.0,29.6,0.00,74.8,30.6
04/12/2018,69.9,37.4,0.10,77.9,28.6
04/13/2018,51.2,35.2,0.19,82.4,46.8
04/14/2018,36.6,26.6,0.55,81.8,70.6
04/15/2018,33.3,26.3,0.90,83.7,69.9
04/16/2018,35.2,28.5,0.30,84.8,55.6
04/17/2018,35.8,26.1,0.00,71.1,49.4
04/18/2018,39.7,30.3,0.00,72.7,49.0
04/19/2018,49.3,31.6,0.00,71.3,19.8
04/20/2018,55.6,25.7,0.00,70.5,15.9
04/21/2018,60.2,31.4,0.00,62.5,12.0
04/22/2018,63.9,30.9,0.00,67.2,9.9
04/23/2018,73.0,29.6,0.00,66.3,15.1
04/24/2018,66.6,50.8,0.00,79.7,31.8
04/25/2018,51.6,36.6,0.02,83.4,48.3
04/26/2018,62.3,29.9,0.00,81.4,11.0
04/27/2018,55.3,35.7,0.01,70.1,29.5
04/28/2018,51.7,30.7,0.00,66.6,18.4
04/29/2018,58.2,25.2,0.00,64.2,8.1
04/30/2018,73.0,32.3,0.00,55.5,6.0
05/01/2018,85.4,53.4,0.00,35.2,12.0
05/02/2018,85.3,65.0,0.00,52.2,20.7
05/03/2018,68.9,52.2,0.40,83.7,48.5
05/04/2018,73.4,52.8,0.24,83.9,32.6
05/05/2018,80.3,49.9,0.00,76.6,11.7
05/06/2018,65.7,41.8,0.00,66.5,22.1
05/07/2018,68.7,35.3,0.00,81.1,16.1
05/08/2018,81.3,47.5,0.00,66.3,14.2
05/09/2018,79.6,54.3,0.05,72.9,15.5
05/10/2018,66.1,47.6,0.01,76.0,27.6
05/11/2018,47.9,36.5,0.25,76.5,27.7
05/12/2018,60.2,37.9,0.04,80.5,26.6
05/13/2018,71.6,42.8,0.00,75.3,22.2
05/14/2018,77.4,51.1,0.05,83.8,42.9
05/15/2018,70.5,49.4,0.39,84.1,47.4
05/16/2018,79.9,43.9,0.00,79.5,21.2
05/17/2018,65.7,47.7,0.00,77.0,31.5
05/18/2018,74.5,44.6,0.00,48.3,16.0
05/19/2018,70.0,52.8,0.11,82.3,32.6
05/20/2018,60.3,47.8,0.01,81.5,50.8
05/21/2018,65.5,40.1,0.00,84.4,19.9
05/22/2018,62.7,49.6,0.33,83.3,56.0
05/23/2018,82.1,49.0,0.00,84.8,12.2
05/24/2018,84.1,53.9,0.00,76.9,13.4
05/25/2018,89.4,58.9,0.00,61.6,20.1
05/26/2018,86.2,67.2,0.07,78.4,28.3
05/27/2018,92.5,61.8,0.00,83.6,22.0
05/28/2018,92.9,61.7,0.00,79.9,15.5
05/29/2018,89.7,65.2,0.00,70.3,26.6
05/30/2018,84.9,65.0,0.01,75.5,37.0
05/31/2018,86.2,70.8,0.18,79.6,32.3
06/01/2018,82.4,53.5,0.00,83.7,39.5
06/02/2018,66.8,49.2,0.00,79.9,35.7
06/03/2018,73.8,52.8,0.11,79.3,36.9
06/04/2018,73.5,55.3,0.00,74.0,21.6
06/05/2018,66.0,49.4,0.00,69.5,34.4
06/06/2018,72.8,45.7,0.00,77.1,18.6
06/07/2018,82.5,58.5,0.00,63.0,18.1
06/08/2018,79.7,54.2,0.00,70.5,29.7
06/09/2018,67.4,57.7,0.10,76.9,51.9
06/10/2018,73.5,56.9,0.02,73.4,32.4
06/11/2018,81.0,49.1,0.00,72.6,14.1
06/12/2018,80.9,51.0,0.00,73.5,37.6
06/13/2018,82.5,59.1,0.00,83.5,14.7
06/14/2018,84.9,54.6,0.00,64.3,9.2
06/15/2018,81.5,48.4,0.00,77.1,20.1
06/16/2018,83.2,63.3,0.14,77.6,41.9
06/17/2018,93.5,66.1,0.00,81.0,29.1
06/18/2018,88.1,68.8,0.06,74.5,45.3
06/19/2018,75.9,59.7,0.00,81.6,42.6
06/20/2018,,,,,
06/21/2018,78.9,49.9,0.00,83.3,26.5
06/22/2018,77.6,52.6,0.01,79.7,28.9
06/23/2018,75.3,60.7,0.16,82.9,55.2
06/24/2018,74.1,55.9,0.10,84.2,45.4
06/25/2018,76.0,48.1,0.00,83.4,19.6
06/26/2018,80.7,45.1,0.00,76.9,20.3
06/27/2018,70.1,62.7,0.77,83.7,73.2
06/28/2018,85.8,59.8,0.00,86.0,34.4
06/29/2018,89.8,63.0,0.00,82.6,33.9
06/30/2018,92.8,75.1,0.00,78.7,40.4
07/01/2018,93.2,73.8,0.00,76.3,31.9
07/02/2018,84.5,68.7,0.00,73.9,32.1
07/03/2018,90.7,60.7,0.00,82.7,14.4
07/04/2018,93.7,66.7,0.00,78.8,31.9
07/05/2018,92.3,74.2,0.00,78.8,36.5
07/06/2018,75.9,56.3,0.00,75.0,13.8
07/07/2018,81.5,47.9,0.00,74.1,14.8
07/08/2018,86.8,51.4,0.00,72.2,15.6
07/09/2018,88.1,59.6,0.00,73.7,23.2
07/10/2018,83.8,61.9,0.00,72.9,17.2
07/11/2018,82.0,53.4,0.00,74.9,15.7
07/12/2018,84.7,52.3,0.00,75.5,16.9
07/13/2018,88.7,63.0,0.25,80.0,30.8
07/14/2018,82.9,68.2,0.01,79.2,47.9
07/15/2018,90.9,65.6,0.00,83.3,29.4
07/16/2018,88.8,68.0,0.64,81.4,36.8
07/17/2018,79.6,58.9,0.00,80.7,27.0
07/18/2018,78.5,55.4,0.00,81.1,29.4
07/19/2018,85.0,51.7,0.00,78.6,23.6
07/20/2018,81.2,62.0,0.00,73.3,39.3
07/21/2018,73.6,67.7,0.29,83.2,63.8
07/22/2018,69.5,63.8,0.11,83.2,64.2
07/23/2018,79.9,62.9,0.01,83.6,42.9
07/24/2018,80.2,67.4,0.67,85.3,51.7
07/25/2018,83.2,59.8,0.00,85.1,30.7
07/26/2018,79.4,60.7,0.00,79.5,30.5
07/27/2018,76.4,56.9,0.00,80.1,38.6
07/28/2018,77.7,54.2,0.00,82.9,30.9
07/29/2018,82.4,52.2,0.00,83.0,23.7
07/30/2018,83.3,53.3,0.00,83.0,23.4
07/31/2018,79.9,53.4,0.00,83.7,33.4
08/01/2018,81.9,59.6,0.74,82.9,34.0
08/02/2018,84.2,59.0,1.69,83.4,33.7
08/03/2018,81.2,61.1,0.00,84.2,37.4
08/04/2018,88.4,59.1,0.00,85.3,21.9
08/05/2018,90.9,70.2,0.00,79.2,30.9
08/06/2018,77.7,67.3,0.04,82.2,57.8
08/07/2018,84.9,64.3,0.01,86.1,39.0
08/08/2018,81.8,66.1,0.95,85.0,45.7
08/09/2018,82.7,62.1,0.00,82.6,47.4
08/10/2018,81.1,58.8,0.00,85.3,28.6
08/11/2018,83.6,57.5,0.00,81.5,32.5
08/12/2018,81.4,58.1,0.00,84.7,35.1
08/13/2018,85.3,58.6,0.00,86.0,31.8
08/14/2018,85.8,60.5,0.00,84.9,38.2
08/15/2018,85.2,64.1,0.00,81.3,43.0
08/16/2018,81.0,63.2,0.00,83.0,53.9
08/17/2018,76.3,67.2,0.29,85.8,68.1
08/18/2018,79.1,61.2,0.00,86.0,59.4
08/19/2018,82.1,61.2,0.00,86.4,42.4
08/20/2018,79.2,60.4,0.00,83.7,36.8
08/21/2018,77.4,63.5,1.26,85.2,57.0
08/22/2018,75.1,56.6,0.00,77.8,27.5
08/23/2018,79.4,52.1,0.00,80.8,26.5
08/24/2018,77.7,55.9,0.00,74.1,30.8
08/25/2018,76.3,62.7,0.29,82.5,61.0
08/26/2018,84.1,66.5,0.00,85.4,49.5
08/27/2018,87.0,67.2,1.49,85.0,54.1
08/28/2018,85.3,66.9,0.88,84.4,51.7
08/29/2018,78.0,58.2,0.26,85.1,57.3
08/30/2018,71.0,54.0,0.00,83.8,48.4
08/31/2018,79.7,53.5,0.00,83.9,39.1
09/01/2018,83.0,62.2,0.92,85.1,53.3
09/02/2018,85.5,67.6,0.20,84.7,50.1
09/03/2018,83.4,69.1,0.00,80.0,48.8
09/04/2018,89.5,68.5,0.00,83.1,42.7
09/05/2018,89.6,69.7,0.01,82.6,35.7
09/06/2018,73.4,55.5,0.11,84.0,45.6
09/07/2018,69.4,48.5,0.00,85.4,34.3
09/08/2018,66.2,50.5,0.00,82.3,41.4
09/09/2018,66.8,47.9,0.01,78.2,36.8
09/10/2018,63.3,54.5,0.08,83.7,68.3
09/11/2018,76.3,49.0,0.00,85.9,37.9
09/12/2018,78.8,51.5,0.00,85.7,34.6
09/13/2018,75.5,51.2,0.00,85.7,54.4
09/14/2018,82.5,57.5,0.00,86.0,37.5
09/15/2018,82.8,59.5,0.00,85.4,42.6
09/16/2018,86.4,56.6,0.00,85.3,34.0
09/17/2018,88.6,58.8,0.00,85.4,28.3
09/18/2018,76.0,60.6,0.00,83.5,48.4
09/19/2018,,,,,
09/20/2018,75.6,59.6,0.09,81.2,49.1
09/21/2018,81.1,53.9,0.02,77.1,31.1
09/22/2018,64.3,44.3,0.00,77.7,29.4
09/23/2018,70.8,42.2,0.00,83.6,26.3
09/24/2018,66.5,45.5,0.00,84.0,65.2
09/25/2018,78.4,65.3,0.19,84.4,54.4
09/26/2018,70.9,44.7,0.00,77.5,29.8
09/27/2018,65.3,42.4,0.00,82.0,30.7
09/28/2018,58.2,44.9,0.02,78.5,39.5
09/29/2018,58.8,37.3,0.00,82.4,24.8
09/30/2018,49.2,42.3,0.27,84.4,63.6

Variable Ids:
  atmp_max:      Max Air Temperature [1.5m] (F)
  atmp_min:      Min Air Temperature [1.5m] (F)
  pcpn:          Precipitation (in)
  relh_max:      Max Relative Humidity [1.5m] (%)
  relh_min:      Min Relative Humidity [1.5m] (%)


=========================================================================
Data provided by the Michigan Automated Weather Network (MAWN) 
and Enviro-weather Program.

Please direct bug reports, comments, and suggestions to the following
email address: eweather@msu.edu
