commercetwp
daily summary

date,atmp_max,atmp_min,pcpn,relh_max,relh_min
06/01/2017,72.2,48.3,0.00,81.8,22.3
06/02/2017,79.3,46.1,0.00,81.3,22.8
06/03/2017,79.4,48.6,0.00,89.3,27.1
06/04/2017,84.7,59.5,0.06,90.1,25.7
06/05/2017,68.0,52.3,0.01,91.5,48.8
06/06/2017,67.3,49.4,0.00,91.0,46.8
06/07/2017,72.8,48.8,0.00,86.9,27.8
06/08/2017,78.2,45.9,0.00,91.2,26.5
06/09/2017,77.6,50.5,0.05,93.5,43.1
06/10/2017,85.8,54.8,0.00,95.2,25.7
06/11/2017,88.2,64.3,0.00,67.7,31.1
06/12/2017,89.2,66.9,0.00,71.6,35.8
06/13/2017,87.3,66.4,0.00,87.2,41.5
06/14/2017,82.0,65.7,0.38,91.1,51.7
06/15/2017,85.7,63.2,0.02,91.0,42.1
06/16/2017,84.7,59.9,0.00,93.3,35.4
06/17/2017,86.3,62.3,0.00,92.3,42.6
06/18/2017,81.4,63.4,0.03,84.7,34.1
06/19/2017,75.2,57.5,0.00,87.0,41.9
06/20/2017,74.1,53.5,0.02,86.7,34.0
06/21/2017,78.4,48.9,0.00,94.5,32.0
06/22/2017,87.3,56.2,0.17,91.5,37.0
06/23/2017,77.4,62.3,0.29,93.2,53.7
06/24/2017,75.5,58.7,0.00,79.7,30.4
06/25/2017,67.6,51.2,0.02,84.9,42.8
06/26/2017,68.7,49.9,0.00,86.8,29.1
06/27/2017,71.7,49.0,0.00,84.9,31.8
06/28/2017,75.7,47.4,0.00,88.2,30.8
06/29/2017,83.9,62.6,0.01,80.6,44.6
06/30/2017,82.9,65.6,0.26,93.0,49.4
07/01/2017,80.3,64.2,0.00,92.4,39.4
07/02/2017,81.6,56.0,0.00,92.0,36.4
07/03/2017,80.3,58.5,0.00,90.3,32.0
07/04/2017,82.4,52.6,0.00,88.5,28.8
07/05/2017,85.4,53.9,0.00,92.0,23.6
07/06/2017,88.1,57.3,0.00,89.4,25.3
07/07/2017,83.3,64.4,0.50,92.2,47.0
07/08/2017,76.5,59.2,0.00,88.6,30.0
07/09/2017,79.4,52.3,0.00,86.6,33.3
07/10/2017,74.8,62.2,0.64,93.3,56.6
07/11/2017,86.5,63.2,0.03,95.5,49.1
07/12/2017,79.9,68.1,0.34,93.5,69.4
07/13/2017,80.5,69.0,0.14,92.9,61.4
07/14/2017,77.3,63.8,0.00,90.9,43.8
07/15/2017,78.3,57.5,0.00,90.2,43.6
07/16/2017,76.2,59.9,0.00,89.8,58.5
07/17/2017,80.2,54.6,0.00,93.7,35.1
07/18/2017,85.0,57.1,0.00,94.1,38.8
07/19/2017,88.1,65.5,0.00,89.8,41.5
07/20/2017,83.3,69.2,0.00,86.9,46.9
07/21/2017,86.3,65.1,0.00,93.6,39.0
07/22/2017,84.0,68.7,0.05,88.2,59.2
07/23/2017,84.4,66.1,0.00,89.3,43.4
07/24/2017,74.3,56.0,0.00,86.9,41.1
07/25/2017,79.9,48.9,0.00,92.5,33.7
07/26/2017,80.0,57.3,0.00,92.5,42.1
07/27/2017,85.4,64.6,0.00,90.6,37.4
07/28/2017,76.9,58.4,0.00,89.6,32.2
07/29/2017,81.7,54.6,0.00,87.9,29.8
07/30/2017,84.5,55.5,0.00,84.5,29.1
07/31/2017,86.3,57.0,0.00,86.6,27.7
08/01/2017,86.4,58.6,0.00,87.8,29.6
08/02/2017,83.9,61.8,0.40,90.2,41.3
08/03/2017,82.9,61.8,1.95,94.1,46.6
08/04/2017,71.2,56.3,0.01,94.4,48.8
08/05/2017,73.4,53.0,0.00,85.2,37.0
08/06/2017,75.2,52.8,0.01,92.6,44.3
08/07/2017,76.4,56.4,0.01,93.8,41.6
08/08/2017,79.8,52.1,0.00,92.8,33.3
08/09/2017,81.9,56.3,0.00,90.4,30.0
08/10/2017,83.4,56.7,0.00,92.0,25.7
08/11/2017,80.5,62.7,0.09,87.9,44.5
08/12/2017,74.3,58.3,0.02,90.9,53.9
08/13/2017,79.4,53.8,0.00,95.1,34.8
08/14/2017,82.2,58.3,0.10,89.7,33.5
08/15/2017,81.6,60.6,0.14,94.4,40.3
08/16/2017,83.6,58.4,0.00,89.4,38.2
08/17/2017,80.0,66.8,0.12,90.3,59.3
08/18/2017,72.9,64.2,0.00,83.6,55.7
08/19/2017,78.0,58.2,0.00,91.4,39.4
08/20/2017,83.6,53.5,0.00,94.5,35.6
08/21/2017,86.9,62.8,0.00,93.4,39.7
08/22/2017,77.1,59.9,0.17,87.8,50.4
08/23/2017,72.6,54.8,0.00,83.4,39.0
08/24/2017,67.1,49.1,0.00,90.1,47.4
08/25/2017,70.7,44.6,0.00,93.8,33.6
08/26/2017,75.1,45.3,0.00,94.1,30.0
08/27/2017,74.8,52.9,0.00,86.6,31.7
08/28/2017,68.0,58.8,0.74,93.7,58.9
08/29/2017,70.9,58.8,0.06,94.5,72.3
08/30/2017,79.6,57.6,0.00,97.5,45.1
08/31/2017,70.6,50.6,0.00,88.6,39.6
09/01/2017,66.7,43.5,0.00,88.7,36.4
09/02/2017,69.9,45.2,0.00,91.7,41.5
09/03/2017,74.7,51.7,0.01,88.7,42.3
09/04/2017,81.0,55.6,0.08,87.3,45.4
09/05/2017,68.3,49.0,0.00,94.1,34.8
09/06/2017,65.4,44.9,0.00,92.7,41.5
09/07/2017,63.3,45.2,0.02,92.5,47.1
09/08/2017,66.8,45.9,0.00,93.9,40.2
09/09/2017,65.3,39.6,0.00,94.0,36.6
09/10/2017,68.5,40.4,0.00,94.3,41.9
09/11/2017,73.5,43.6,0.00,95.7,39.8
09/12/2017,76.6,44.5,0.00,95.6,29.2
09/13/2017,75.1,50.4,0.00,91.5,57.5
09/14/2017,79.3,51.1,0.00,96.1,40.7
09/15/2017,77.4,52.8,0.00,95.5,48.4
09/16/2017,79.9,52.8,0.00,95.1,42.6
09/17/2017,85.5,54.5,0.00,94.8,37.1
09/18/2017,72.0,57.7,0.00,91.0,71.5
09/19/2017,70.2,56.9,0.13,93.0,75.4
09/20/2017,82.7,61.6,0.01,96.0,45.2
09/21/2017,90.8,63.3,0.00,93.2,39.0
09/22/2017,91.5,64.1,0.00,92.5,34.5
09/23/2017,92.0,60.9,0.00,93.0,29.8
09/24/2017,90.5,59.8,0.00,94.8,30.5
09/25/2017,90.6,61.5,0.00,95.2,29.1
09/26/2017,90.4,61.8,0.00,93.5,27.5
09/27/2017,73.5,56.0,0.00,88.6,40.5
09/28/2017,66.8,45.3,0.00,87.8,36.4
09/29/2017,65.6,47.1,0.09,87.0,33.8
09/30/2017,64.7,41.9,0.00,91.2,33.2
10/01/2017,69.7,36.5,0.00,94.1,27.9
10/02/2017,74.6,41.1,0.00,94.5,31.6
10/03/2017,83.0,48.1,0.00,92.7,38.4
10/04/2017,72.2,60.0,0.07,86.9,60.7
10/05/2017,74.4,45.7,0.00,91.1,32.1
10/06/2017,60.2,52.7,0.50,95.5,73.7
10/07/2017,81.2,60.0,0.25,96.2,42.4
10/08/2017,75.9,59.2,0.02,85.7,39.9
10/09/2017,78.2,53.9,0.13,94.3,33.2
10/10/2017,68.0,51.7,0.00,92.8,54.9
10/11/2017,55.8,49.2,1.13,92.5,68.2
10/12/2017,54.6,47.9,0.00,94.0,79.7
10/13/2017,69.3,53.7,0.00,94.9,52.6
10/14/2017,60.9,56.5,1.55,93.8,74.9
10/15/2017,68.7,43.6,0.11,93.9,61.1
10/16/2017,55.9,38.2,0.00,89.2,37.0
10/17/2017,67.0,37.0,0.00,91.6,32.8
10/18/2017,67.4,42.3,0.00,83.5,30.2
10/19/2017,67.1,44.3,0.00,79.2,18.5
10/20/2017,73.4,38.1,0.00,82.1,31.1
10/21/2017,73.4,44.5,0.00,93.0,41.3
10/22/2017,76.8,48.7,0.00,83.4,44.4
10/23/2017,65.1,50.4,0.41,92.7,51.1
10/24/2017,50.7,40.1,0.23,92.1,62.2
10/25/2017,50.7,37.9,0.05,89.8,38.4
10/26/2017,53.0,28.4,0.00,93.1,32.3
10/27/2017,53.6,38.5,0.31,90.2,62.0
10/28/2017,43.4,33.3,0.00,87.6,55.6
10/29/2017,43.2,35.9,0.00,89.6,61.9
10/30/2017,41.6,33.1,0.08,86.5,65.7
10/31/2017,38.3,32.6,0.04,90.6,57.8
11/01/2017,40.1,30.8,0.05,90.2,63.6
11/02/2017,54.0,39.3,0.66,95.0,90.3
11/03/2017,48.8,32.6,0.01,94.6,48.9
11/04/2017,46.8,34.0,0.17,93.5,71.6
11/05/2017,60.2,44.7,0.06,96.8,81.8
11/06/2017,45.8,32.4,0.00,86.0,43.3
11/07/2017,48.1,27.1,0.00,88.9,37.1
11/08/2017,46.1,23.4,0.00,90.6,42.8
11/09/2017,43.9,20.9,0.00,92.0,48.3
11/10/2017,27.4,14.9,0.00,76.7,32.4
11/11/2017,35.5,18.6,0.00,71.8,33.0
11/12/2017,37.2,29.0,0.12,92.2,47.1
11/13/2017,41.8,31.6,0.00,92.3,55.2
11/14/2017,46.5,27.3,0.00,91.8,55.6
11/15/2017,44.7,36.8,0.29,92.8,65.8
11/16/2017,41.9,33.0,0.01,88.0,62.8
11/17/2017,40.6,30.9,0.08,83.8,59.7
11/18/2017,42.8,31.8,1.25,95.0,80.7
11/19/2017,35.8,25.7,0.00,85.6,53.7
11/20/2017,46.1,25.5,0.00,79.8,43.3
11/21/2017,49.7,31.0,0.08,86.5,43.5
11/22/2017,32.9,22.0,0.00,82.9,44.2
11/23/2017,37.1,24.0,0.00,78.2,49.6
11/24/2017,51.9,27.3,0.00,78.3,40.2
11/25/2017,48.7,30.4,0.00,86.3,52.5
11/26/2017,40.9,20.1,0.00,89.6,45.4
11/27/2017,45.7,26.6,0.00,90.9,51.4
11/28/2017,63.2,36.0,0.00,89.3,27.9
11/29/2017,48.8,27.8,0.00,87.5,34.1
11/30/2017,46.5,28.6,0.11,89.2,53.4
12/01/2017,46.0,24.4,0.00,90.0,40.0
12/02/2017,50.0,28.0,0.00,90.2,39.8
12/03/2017,51.3,25.3,0.00,90.4,32.9
12/04/2017,54.7,32.1,0.00,82.4,51.4
12/05/2017,55.7,28.1,0.00,84.4,38.5
12/06/2017,36.7,23.7,0.00,60.0,35.6
12/07/2017,30.2,21.0,0.00,80.3,50.2
12/08/2017,30.9,16.3,0.00,75.9,35.8
12/09/2017,26.7,20.4,0.00,90.0,43.4
12/10/2017,24.9,19.9,0.00,88.7,61.4
12/11/2017,26.9,18.1,0.00,92.1,71.4
12/12/2017,28.1,9.9,0.00,92.1,43.2
12/13/2017,20.8,10.6,0.00,91.2,73.2
12/14/2017,23.2,3.4,0.00,90.3,57.0
12/15/2017,23.4,13.0,0.00,87.1,69.8
12/16/2017,26.2,17.1,0.00,91.5,73.9
12/17/2017,29.3,14.6,0.00,91.9,72.0
12/18/2017,38.8,36.8,0.01,93.6,80.1
12/19/2017,44.9,34.6,0.00,86.7,46.7
12/20/2017,34.9,24.1,0.00,71.1,42.8
12/21/2017,31.9,24.4,0.00,81.0,62.6
12/22/2017,33.5,27.9,0.00,83.5,75.1
12/23/2017,34.1,23.5,0.00,88.5,58.0
12/24/2017,23.7,15.4,0.00,89.2,62.0
12/25/2017,19.5,0.6,0.00,88.8,58.6
12/26/2017,8.9,-5.2,0.00,84.7,57.2
12/27/2017,10.7,-10.3,0.00,83.4,41.9
12/28/2017,13.6,-16.2,0.00,83.6,38.4
12/29/2017,15.9,6.5,0.00,84.4,56.6
12/30/2017,12.9,1.3,0.00,85.8,47.5
12/31/2017,16.1,-9.9,0.00,82.5,33.7
01/01/2018,11.8,-7.4,0.00,80.8,49.0
01/02/2018,16.4,-0.7,0.00,79.6,45.5
01/03/2018,13.9,-0.6,0.00,85.4,57.9
01/04/2018,10.7,-4.0,0.00,82.9,49.6
01/05/2018,3.6,-8.1,0.00,75.8,38.9
01/06/2018,9.1,-12.9,0.00,82.0,33.5
01/07/2018,26.8,-13.4,0.00,82.0,54.7
01/08/2018,36.5,26.0,0.17,95.3,65.2
01/09/2018,41.7,22.9,0.00,93.1,45.1
01/10/2018,47.0,25.5,0.03,94.8,89.1
01/11/2018,54.7,46.5,0.04,92.4,78.7
01/12/2018,53.3,9.1,0.11,92.4,61.1
01/13/2018,14.4,-0.6,0.00,84.3,56.5
01/14/2018,15.8,-5.9,0.00,83.7,54.7
01/15/2018,18.3,12.3,0.00,89.0,60.6
01/16/2018,16.8,3.9,0.00,89.4,74.9
01/17/2018,24.4,-5.4,0.00,84.6,54.9
01/18/2018,28.5,12.9,0.01,76.1,52.8
01/19/2018,38.0,16.0,0.00,79.2,45.6
01/20/2018,44.2,29.1,0.00,84.4,50.4
01/21/2018,37.8,27.8,0.00,94.5,83.5
01/22/2018,50.5,34.4,0.48,96.2,81.7
01/23/2018,44.1,24.5,0.05,95.1,71.2
01/24/2018,26.2,21.7,0.00,76.7,62.5
01/25/2018,32.7,22.0,0.00,83.5,58.7
01/26/2018,50.5,24.0,0.00,89.4,37.9
01/27/2018,50.1,32.0,0.00,75.5,24.4
01/28/2018,46.9,25.1,0.00,80.9,41.0
01/29/2018,27.3,13.8,0.00,90.5,70.4
01/30/2018,21.8,8.5,0.00,76.2,42.5
01/31/2018,38.9,16.4,0.02,79.5,45.9
02/01/2018,34.0,6.3,0.00,81.5,39.3
02/02/2018,16.6,5.5,0.00,73.7,39.8
02/03/2018,30.9,8.1,0.00,88.6,39.0
02/04/2018,31.3,6.1,0.01,92.5,39.5
02/05/2018,19.8,-0.9,0.00,84.3,44.5
02/06/2018,23.9,6.5,0.03,85.9,41.0
02/07/2018,22.8,8.9,0.01,86.1,51.2
02/08/2018,18.8,3.1,0.00,85.5,55.1
02/09/2018,22.0,13.0,0.00,91.0,68.0
02/10/2018,21.9,16.4,0.00,90.2,83.5
02/11/2018,24.7,16.9,0.00,91.1,74.3
02/12/2018,30.0,4.1,0.01,83.0,32.2
02/13/2018,27.3,-0.0,0.00,86.2,36.4
02/14/2018,43.8,16.4,0.21,92.3,53.6
02/15/2018,47.4,36.4,0.00,94.8,74.4
02/16/2018,36.6,15.8,0.00,80.4,43.1
02/17/2018,32.0,13.5,0.00,90.5,55.7
02/18/2018,36.3,23.8,0.02,91.3,51.1
02/19/2018,54.4,29.3,0.27,95.1,77.5
02/20/2018,58.9,53.0,1.68,94.2,86.2
02/21/2018,53.9,28.5,0.36,94.0,65.8
02/22/2018,40.6,26.1,0.00,85.9,42.8
02/23/2018,44.8,29.9,0.06,94.8,80.0
02/24/2018,37.4,33.0,0.01,91.7,64.9
02/25/2018,46.3,33.5,0.02,95.3,40.7
02/26/2018,48.7,27.3,0.00,77.2,24.2
02/27/2018,57.4,35.2,0.00,64.3,28.1
02/28/2018,59.9,36.3,0.00,79.5,43.6
03/01/2018,36.8,28.4,0.14,94.9,78.3
03/02/2018,42.2,24.4,0.40,94.6,40.6
03/03/2018,42.9,18.8,0.00,84.5,21.2
03/04/2018,41.5,17.3,0.00,85.7,31.1
03/05/2018,36.4,17.2,0.00,86.7,37.5
03/06/2018,38.0,27.5,0.00,93.7,61.5
03/07/2018,31.8,22.1,0.00,94.4,60.7
03/08/2018,29.3,18.5,0.01,83.9,57.5
03/09/2018,32.2,24.1,0.00,83.9,46.4
03/10/2018,34.2,16.1,0.03,89.4,36.6
03/11/2018,40.9,11.4,0.03,88.6,32.8
03/12/2018,33.2,14.9,0.02,89.4,68.6
03/13/2018,32.1,22.0,0.01,90.0,53.0
03/14/2018,37.2,18.3,0.00,72.7,33.6
03/15/2018,33.6,20.6,0.00,70.5,43.9
03/16/2018,35.9,18.3,0.00,67.8,29.0
03/17/2018,46.7,16.5,0.00,87.0,19.6
03/18/2018,54.6,20.5,0.00,84.4,20.4
03/19/2018,42.6,22.1,0.00,72.1,33.8
03/20/2018,39.6,21.4,0.00,79.3,26.7
03/21/2018,38.8,25.2,0.00,73.3,29.2
03/22/2018,43.0,22.9,0.00,68.8,23.0
03/23/2018,41.1,21.4,0.00,79.6,26.3
03/24/2018,39.5,19.2,0.00,84.5,23.8
03/25/2018,37.9,19.1,0.00,64.3,21.8
03/26/2018,49.5,28.0,0.00,77.6,29.9
03/27/2018,51.2,38.1,0.28,92.6,41.5
03/28/2018,45.8,35.3,0.00,86.3,62.1
03/29/2018,43.3,37.9,0.16,91.3,80.1
03/30/2018,44.2,27.9,0.00,88.7,28.8
03/31/2018,47.1,25.7,0.12,84.3,54.3
04/01/2018,36.5,26.2,0.00,76.9,31.9
04/02/2018,41.5,17.7,0.00,78.1,30.2
04/03/2018,39.4,30.9,0.63,92.3,49.1
04/04/2018,33.8,25.4,0.01,93.5,47.1
04/05/2018,39.9,21.8,0.00,71.0,29.6
04/06/2018,40.1,24.0,0.07,92.4,38.6
04/07/2018,33.6,18.0,0.00,77.1,37.2
04/08/2018,39.3,14.7,0.00,79.2,27.4
04/09/2018,37.1,27.2,0.01,90.3,58.4
04/10/2018,42.9,25.7,0.26,92.9,33.5
04/11/2018,55.1,30.6,0.00,80.0,30.6
04/12/2018,71.4,38.4,0.06,89.4,34.0
04/13/2018,55.6,35.9,0.00,84.9,56.7
04/14/2018,40.7,28.1,0.82,90.5,83.2
04/15/2018,33.6,26.8,0.13,93.5,83.1
04/16/2018,35.6,28.0,0.01,94.2,73.1
04/17/2018,33.9,24.4,0.01,87.0,57.4
04/18/2018,44.4,28.7,0.00,82.1,46.2
04/19/2018,51.3,30.4,0.00,81.2,22.3
04/20/2018,56.2,28.8,0.00,63.4,13.0
04/21/2018,57.4,27.2,0.00,86.8,23.5
04/22/2018,59.6,27.3,0.00,87.6,18.1
04/23/2018,68.9,33.5,0.00,67.8,31.7
04/24/2018,63.3,48.9,0.00,91.5,52.2
04/25/2018,56.8,37.9,0.05,92.9,45.9
04/26/2018,64.0,32.0,0.00,92.3,18.3
04/27/2018,62.1,34.4,0.00,89.5,27.6
04/28/2018,51.4,32.0,0.00,83.0,25.4
04/29/2018,57.4,28.4,0.00,73.1,14.2
04/30/2018,71.4,31.3,0.00,71.6,11.1
05/01/2018,82.6,46.2,0.00,51.1,14.8
05/02/2018,82.2,61.4,0.20,88.7,31.3
05/03/2018,70.2,56.0,1.06,93.0,74.4
05/04/2018,71.6,51.9,0.21,94.1,43.5
05/05/2018,75.8,51.5,0.00,80.4,28.9
05/06/2018,74.9,46.9,0.00,89.0,31.2
05/07/2018,69.9,39.4,0.00,78.3,23.3
05/08/2018,76.7,42.4,0.00,85.8,26.1
05/09/2018,77.3,48.0,0.12,78.0,30.3
05/10/2018,67.0,50.6,0.33,89.2,46.6
05/11/2018,50.7,38.9,0.72,91.2,51.0
05/12/2018,52.4,39.1,1.05,92.8,70.0
05/13/2018,66.9,41.9,0.34,91.0,54.7
05/14/2018,76.3,49.3,0.00,93.6,51.3
05/15/2018,73.3,53.3,0.20,92.7,46.0
05/16/2018,81.5,46.4,0.00,86.0,30.2
05/17/2018,77.8,50.0,0.00,88.9,30.4
05/18/2018,73.9,50.0,0.00,56.6,32.1
05/19/2018,77.0,54.0,0.23,92.6,47.7
05/20/2018,61.3,48.9,0.00,90.9,72.8
05/21/2018,63.9,44.3,0.26,93.0,27.9
05/22/2018,68.5,49.8,0.00,92.0,69.6
05/23/2018,81.2,48.3,0.00,94.0,16.2
05/24/2018,81.6,49.3,0.00,93.8,23.0
05/25/2018,86.6,51.6,0.00,85.6,28.4
05/26/2018,82.6,59.8,0.00,83.0,42.3
05/27/2018,91.6,60.2,0.02,94.5,30.1
05/28/2018,94.9,62.0,0.00,93.1,24.2
05/29/2018,88.3,65.5,0.00,86.6,31.6
05/30/2018,83.7,67.0,0.20,89.3,52.7
05/31/2018,85.5,71.0,0.06,89.0,42.0
06/01/2018,85.0,57.6,0.01,91.2,41.5
06/02/2018,70.2,51.6,0.00,82.5,56.9
06/03/2018,71.6,56.4,0.37,91.2,42.9
06/04/2018,70.3,55.7,0.00,77.4,34.8
06/05/2018,66.4,50.1,0.14,91.1,47.9
06/06/2018,72.7,42.7,0.00,92.3,31.5
06/07/2018,82.5,56.2,0.00,70.5,30.4
06/08/2018,81.1,56.3,0.00,79.0,35.5
06/09/2018,64.6,57.5,0.23,90.8,56.2
06/10/2018,66.9,57.9,0.00,89.1,57.6
06/11/2018,76.2,56.9,0.00,70.3,27.4
06/12/2018,76.8,56.2,0.11,90.9,44.6
06/13/2018,81.0,56.6,0.01,93.2,27.5
06/14/2018,82.4,56.7,0.00,72.1,24.1
06/15/2018,82.4,51.7,0.00,88.7,29.2
06/16/2018,81.6,62.1,0.06,88.3,49.2
06/17/2018,92.4,62.6,0.00,93.5,38.2
06/18/2018,91.6,71.2,0.20,90.1,41.5
06/19/2018,73.7,62.8,0.10,91.3,57.0
06/20/2018,72.4,55.8,0.10,88.2,53.3
06/21/2018,76.4,54.0,0.00,94.1,39.5
06/22/2018,72.8,60.8,0.02,92.9,43.2
06/23/2018,78.8,62.3,0.73,93.1,55.5
06/24/2018,74.0,60.9,0.48,92.1,55.0
06/25/2018,73.6,50.9,0.00,90.8,30.2
06/26/2018,79.7,49.5,0.00,90.0,31.1
06/27/2018,75.6,63.8,0.88,92.5,69.5
06/28/2018,85.8,64.7,0.00,91.6,41.8
06/29/2018,88.8,62.7,0.00,93.2,39.4
06/30/2018,91.6,73.7,0.00,85.9,48.8
07/01/2018,90.8,69.8,0.15,89.4,46.6
07/02/2018,86.0,67.5,0.00,84.3,39.6
07/03/2018,89.5,63.5,0.00,93.5,30.6
07/04/2018,91.1,69.2,0.00,85.4,45.7
07/05/2018,91.8,72.8,0.00,89.0,39.9
07/06/2018,77.5,58.1,0.00,75.8,21.6
07/07/2018,78.8,48.9,0.00,83.8,24.9
07/08/2018,85.8,51.2,0.00,91.7,24.0
07/09/2018,88.1,56.2,0.00,87.8,28.1
07/10/2018,85.1,62.3,0.00,74.7,23.8
07/11/2018,83.3,55.2,0.00,83.3,27.1
07/12/2018,83.5,53.2,0.00,88.1,30.4
07/13/2018,90.0,61.5,0.00,83.7,31.6
07/14/2018,83.3,65.1,0.00,83.3,52.3
07/15/2018,91.9,66.2,0.01,91.8,40.0
07/16/2018,89.9,67.1,1.42,91.4,42.5
07/17/2018,78.7,59.1,0.00,88.1,33.5
07/18/2018,80.1,54.6,0.00,93.3,32.9
07/19/2018,82.4,55.2,0.00,91.8,31.9
07/20/2018,79.4,60.7,0.02,91.2,53.8
07/21/2018,70.5,65.0,0.79,92.6,65.4
07/22/2018,69.9,62.0,0.02,90.7,54.6
07/23/2018,78.8,60.2,0.00,90.4,57.4
07/24/2018,80.6,66.9,0.00,89.1,53.1
07/25/2018,84.8,63.4,0.00,90.5,37.4
07/26/2018,80.6,60.8,0.01,89.0,32.5
07/27/2018,77.5,55.8,0.00,87.9,43.3
07/28/2018,78.8,54.5,0.00,89.0,38.3
07/29/2018,82.0,55.5,0.00,90.5,30.5
07/30/2018,80.2,56.2,0.00,92.1,40.7
07/31/2018,77.0,58.6,0.33,92.9,47.6
08/01/2018,78.8,60.3,0.68,92.6,45.8
08/02/2018,82.9,58.8,0.00,92.0,40.5
08/03/2018,84.5,62.2,0.00,91.9,39.6
08/04/2018,87.9,59.9,0.00,93.3,28.8
08/05/2018,89.2,65.2,0.00,90.6,40.7
08/06/2018,84.4,68.5,0.30,91.6,48.4
08/07/2018,85.8,67.4,0.00,93.0,44.3
08/08/2018,80.2,66.5,0.00,91.8,54.9
08/09/2018,82.2,61.2,0.00,92.0,49.3
08/10/2018,81.8,59.4,0.00,88.7,33.3
08/11/2018,82.8,55.5,0.00,93.0,38.8
08/12/2018,82.3,60.0,0.01,94.1,39.0
08/13/2018,86.3,59.8,0.00,94.2,33.7
08/14/2018,85.8,61.2,0.00,91.9,30.1
08/15/2018,84.6,65.1,0.00,86.7,45.5
08/16/2018,76.3,67.3,0.40,92.7,69.8
08/17/2018,79.3,69.1,0.01,93.6,64.3
08/18/2018,85.1,65.7,0.00,93.4,41.3
08/19/2018,80.3,63.9,0.00,92.9,49.6
08/20/2018,79.7,61.1,0.00,91.9,48.7
08/21/2018,79.0,64.7,0.31,92.8,59.0
08/22/2018,74.4,55.4,0.00,80.2,31.9
08/23/2018,79.2,53.6,0.00,85.0,30.9
08/24/2018,76.4,53.4,0.00,90.6,39.5
08/25/2018,75.3,64.6,0.38,91.6,62.6
08/26/2018,83.8,64.6,0.00,94.0,57.0
08/27/2018,87.6,67.4,0.00,90.0,47.7
08/28/2018,88.7,73.2,0.00,78.2,51.4
08/29/2018,80.9,63.8,0.01,90.1,52.7
08/30/2018,75.6,54.2,0.00,89.3,41.0
08/31/2018,82.1,53.6,0.00,93.1,37.8
09/01/2018,85.6,62.7,0.71,92.0,55.0
09/02/2018,86.2,69.8,0.15,92.7,53.1
09/03/2018,88.4,68.0,0.70,93.3,46.9
09/04/2018,88.3,67.2,0.02,93.8,50.6
09/05/2018,89.1,67.2,0.27,91.2,42.7
09/06/2018,73.7,61.8,0.05,92.4,57.8
09/07/2018,67.8,58.1,0.00,83.6,51.8
09/08/2018,65.3,54.9,0.00,79.5,51.2
09/09/2018,58.4,52.1,0.01,86.0,58.8
09/10/2018,62.0,52.8,0.13,93.4,69.4
09/11/2018,78.4,54.8,0.00,90.5,43.3
09/12/2018,75.3,50.0,0.00,94.6,49.2
09/13/2018,73.7,55.0,0.00,94.0,74.4
09/14/2018,83.9,60.9,0.00,94.2,45.8
09/15/2018,86.3,63.1,0.00,93.9,42.7
09/16/2018,83.9,60.9,0.00,94.0,45.1
09/17/2018,86.7,61.1,0.00,94.2,42.7
09/18/2018,85.7,62.2,0.00,92.5,46.7
09/19/2018,76.5,61.5,0.00,88.7,50.4
09/20/2018,73.0,59.2,1.05,93.7,74.9
09/21/2018,78.6,56.9,0.00,93.0,39.8
09/22/2018,61.7,46.3,0.00,90.7,47.5
09/23/2018,69.2,43.0,0.00,94.9,35.6
09/24/2018,64.5,51.6,0.26,93.7,79.8
09/25/2018,74.5,64.1,0.09,94.1,78.9
09/26/2018,69.3,45.2,0.00,86.2,39.2
09/27/2018,60.8,40.8,0.00,93.7,51.6
09/28/2018,64.1,43.7,0.00,92.3,59.2
09/29/2018,60.3,38.4,0.00,93.6,36.6
09/30/2018,52.6,41.2,0.19,92.5,62.9

Variable Ids:
  atmp_max:      Max Air Temperature [1.5m] (F)
  atmp_min:      Min Air Temperature [1.5m] (F)
  pcpn:          Precipitation (in)
  relh_max:      Max Relative Humidity [1.5m] (%)
  relh_min:      Min Relative Humidity [1.5m] (%)


=========================================================================
Data provided by the Michigan Automated Weather Network (MAWN) 
and Enviro-weather Program.

Please direct bug reports, comments, and suggestions to the following
email address: eweather@msu.edu
